[
  {
    "id": "f235957d-b5f4-432c-aa52-12a0e972b6ea",
    "alias": "CAPTAIN MARVEL",
    "name": "CAROL DANVERS",
    "photo": "https://terrigen-cdn-dev.marvel.com/content/prod/1x/008cmv_ons_crd_04.jpg",
    "bio": "Carol Danvers becomes one of the universe's most powerful heroes when Earth is caught in the middle of a galactic war between two alien races."
  },
  {
    "id": "cbfe69aa-18eb-46de-86dc-33e68b862763",
    "alias": "THANOS",
    "name": "",
    "photo": "https://terrigen-cdn-dev.marvel.com/content/prod/1x/019tha_ons_crd_03.jpg",
    "bio": "The Mad Titan Thanos quests across the universe in search of the Infinity Stones, intending to use their limitless power for shocking purposes."
  },
  {
    "id": "b6da8dde-d2d3-424a-84f9-da59711895c1",
    "alias": "BLACK PANTHER",
    "name": "T'CHALLA",
    "photo": "https://terrigen-cdn-dev.marvel.com/content/prod/1x/007blp_ons_crd_02.jpg",
    "bio": "T’Challa is the king of the secretive and highly advanced African nation of Wakanda - as well as the powerful warrior known as the Black Panther."
  },
  {
    "id": "44896a31-b697-41ea-ad73-6fa96540505c",
    "alias": "YON-ROGG",
    "name": "",
    "photo": "https://terrigen-cdn-dev.marvel.com/content/prod/1x/272sfc_ons_crd_02_0.jpg",
    "bio": "As the leader of a squad of elite Kree soldiers, Yon-Rogg takes newly-recruited Carol Danvers under his wing and trains her."
  },
  {
    "id": "0a0a6969-18ef-41aa-a95d-2073caaa7106",
    "alias": "SPIDER-MAN",
    "name": "PETER PARKER",
    "photo": "https://terrigen-cdn-dev.marvel.com/content/prod/1x/005smp_ons_crd_02.jpg",
    "bio": "Bitten by a radioactive spider, Peter Parker’s arachnid abilities give him amazing powers he uses to help others, while his personal life continues to offer plenty of obstacles."
  },
  {
    "id": "8aa570a9-f2f8-4909-9dc1-21cca709592f",
    "alias": "GOOSE THE CAT",
    "name": "",
    "photo": "https://terrigen-cdn-dev.marvel.com/content/prod/1x/247gse_ons_crd_01.jpg",
    "bio": "The friendliest and furriest resident of Project Pegasus, Goose is the affectionate tabby cat that joins Carol Danvers and Nick Fury on their adventure."
  },
  {
    "id": "9b7dd211-17b7-4725-9b2e-4a81cd433c3b",
    "alias": "IRON MAN",
    "name": "TONY STARK",
    "photo": "https://terrigen-cdn-dev.marvel.com/content/prod/1x/002irm_ons_crd_03.jpg",
    "bio": "Genius. Billionaire. Philanthropist. Tony Stark's confidence is only matched by his high-flying abilities as the hero called Iron Man."
  },
  {
    "id": "e33b950d-31b9-4daa-b934-bcf2df358f04",
    "alias": "CAPTAIN AMERICA",
    "name": "STEVE ROGERS",
    "photo": "https://terrigen-cdn-dev.marvel.com/content/prod/1x/003cap_ons_crd_03.jpg",
    "bio": "Recipient of the Super-Soldier serum, World War II hero Steve Rogers fights for American ideals as one of the world’s mightiest heroes and the leader of the Avengers."
  },
  {
    "id": "0314a49c-528c-4558-9be0-1b6efc3f3a7c",
    "alias": "BLACK WIDOW",
    "name": "NATASHA ROMANOFF",
    "photo": "https://terrigen-cdn-dev.marvel.com/content/prod/1x/011blw_ons_crd_03.jpg",
    "bio": "Despite super spy Natasha Romanoff’s checkered past, she’s become one of S.H.I.E.L.D.’s most deadly assassins and a frequent member of the Avengers."
  },
  {
    "id": "f6b83c75-54bc-44eb-9fd5-eec5f8e55640",
    "alias": "HULK",
    "name": "BRUCE BANNER",
    "photo": "https://terrigen-cdn-dev.marvel.com/content/prod/1x/006hbb_ons_crd_03.jpg",
    "bio": "Dr. Bruce Banner lives a life caught between the soft-spoken scientist he’s always been and the uncontrollable green monster powered by his rage."
  },
  {
    "id": "e0019229-ba43-4efb-9c47-fb3b6d02c716",
    "alias": "HAWKEYE",
    "name": "CLINT BARTON",
    "photo": "https://terrigen-cdn-dev.marvel.com/content/prod/1x/018hcb_ons_crd_02.jpg",
    "bio": "A master marksman and longtime friend of Black Widow, Clint Barton serves as the Avengers’ amazing archer."
  },
  {
    "id": "32105a7e-cca9-47d5-b8e9-e90365bcb264",
    "alias": "THOR",
    "name": "",
    "photo": "https://terrigen-cdn-dev.marvel.com/content/prod/1x/004tho_ons_crd_03.jpg",
    "bio": "The son of Odin uses his mighty abilities as the God of Thunder to protect his home Asgard and planet Earth alike."
  },
  {
    "id": "7e31d4bc-668d-497f-8775-122abf71110f",
    "alias": "3-D MAN",
    "name": "CHARLES CHANDLER & HAL CHANDLER",
    "photo": "https://terrigen-cdn-dev.marvel.com/content/prod/1x/3dman442.jpg",
    "bio": ""
  },
  {
    "id": "b865d22e-ed70-45a3-b3c2-5d0e130baf49",
    "alias": "3-D MAN",
    "name": "DELROY GARRETT, JR.",
    "photo": "https://terrigen-cdn-dev.marvel.com/content/prod/1x/triathlon.jpg",
    "bio": ""
  },
  {
    "id": "309df38a-c2e3-48fb-bed9-ee2a597de3d5",
    "alias": "8-BALL",
    "name": "JEFF HAGEES",
    "photo": "https://terrigen-cdn-dev.marvel.com/content/prod/1x/8-ball.jpg",
    "bio": ""
  }
]